{
	"info": {
		"_postman_id": "82722faf-ec4e-4c51-9cd6-0ec6f1d8cc27",
		"name": "paninti",
		"schema": "https://schema.getpostman.com/json/collection/v2.1.0/collection.json"
	},
	"item": [
		{
			"name": "api gateway",
			"item": [
				{
					"name": "user",
					"item": [
						{
							"name": "register",
							"request": {
								"method": "POST",
								"header": [],
								"body": {
									"mode": "raw",
									"raw": "{\n    \"userName\":\"admin\",\n    \"email\":\"mail123@mail.com\",\n    \"password\":\"password123!\",\n    \"name\":\"name\",\n    \"phone\":\"081\",\n    \"imageUrl\":null,\n    \"store\":{    \n        \"name\":\"toko ikal\",\n        \"address\":\"address 2\",\n        \"phone\":\"phone 22\",\n        \"email\":\"mail@mail.com 22\",    \n        \"imageUrl\":null\n    }\n}",
									"options": {
										"raw": {
											"language": "json"
										}
									}
								},
								"url": {
									"raw": "127.0.0.1:3000/user",
									"host": [
										"127",
										"0",
										"0",
										"1"
									],
									"port": "3000",
									"path": [
										"user"
									]
								}
							},
							"response": []
						},
						{
							"name": "login",
							"request": {
								"method": "POST",
								"header": [],
								"body": {
									"mode": "raw",
									"raw": "{    \n    \"email\":\"mail123@mail.com\",\n    \"password\":\"password123!\"\n}",
									"options": {
										"raw": {
											"language": "json"
										}
									}
								},
								"url": {
									"raw": "127.0.0.1:3000/user/login",
									"host": [
										"127",
										"0",
										"0",
										"1"
									],
									"port": "3000",
									"path": [
										"user",
										"login"
									]
								}
							},
							"response": []
						},
						{
							"name": "validate",
							"request": {
								"auth": {
									"type": "bearer",
									"bearer": [
										{
											"key": "token",
											"value": "eyJhbGciOiJFUzI1NiIsInR5cCI6IkpXVCJ9.eyJpZCI6MzMsImNvbXBhbnlJZCI6bnVsbCwidXNlck5hbWUiOiJhZG1pbiIsInBob25lIjoiMDgxIiwiZW1haWwiOiJtYWlsMTIzQG1haWwuY29tIiwiaW1hZ2VVcmwiOm51bGwsInRva2VuIjpudWxsLCJpYXQiOjE2MzM5NzY4ODksImV4cCI6MTY2NTA4MDg4OX0.T7ttC5L0my1doWb8KB2FyMzn-_KZ7W2lYSs3EG9U6B7OQMlP8zhURWxq3bYjm1CvatXWEZCh7oQjv2hGGVWvoQ",
											"type": "string"
										}
									]
								},
								"method": "GET",
								"header": [
									{
										"warning": "This is a duplicate header and will be overridden by the Authorization header generated by Postman.",
										"key": "Authorization",
										"value": "Bearer eyJhbGciOiJFUzI1NiIsInR5cCI6IkpXVCJ9.eyJpZCI6MzMsImNvbXBhbnlJZCI6bnVsbCwidXNlck5hbWUiOiJhZG1pbiIsInBob25lIjoiMDgxIiwiZW1haWwiOiJtYWlsMTIzQG1haWwuY29tIiwiaW1hZ2VVcmwiOm51bGwsInRva2VuIjpudWxsLCJpYXQiOjE2MzM5NzY4ODksImV4cCI6MTY2NTA4MDg4OX0.T7ttC5L0my1doWb8KB2FyMzn-_KZ7W2lYSs3EG9U6B7OQMlP8zhURWxq3bYjm1CvatXWEZCh7oQjv2hGGVWvoQ",
										"type": "text"
									}
								],
								"url": {
									"raw": "127.0.0.1:3000/user",
									"host": [
										"127",
										"0",
										"0",
										"1"
									],
									"port": "3000",
									"path": [
										"user"
									]
								}
							},
							"response": []
						},
						{
							"name": "find one",
							"request": {
								"auth": {
									"type": "bearer",
									"bearer": [
										{
											"key": "token",
											"value": "eyJhbGciOiJFUzI1NiIsInR5cCI6IkpXVCJ9.eyJpZCI6MzMsImNvbXBhbnlJZCI6bnVsbCwidXNlck5hbWUiOiJhZG1pbiIsInBob25lIjoiMDgxIiwiZW1haWwiOiJtYWlsMTIzQG1haWwuY29tIiwiaW1hZ2VVcmwiOm51bGwsInRva2VuIjpudWxsLCJpYXQiOjE2MzM5NzY4ODksImV4cCI6MTY2NTA4MDg4OX0.T7ttC5L0my1doWb8KB2FyMzn-_KZ7W2lYSs3EG9U6B7OQMlP8zhURWxq3bYjm1CvatXWEZCh7oQjv2hGGVWvoQ",
											"type": "string"
										}
									]
								},
								"method": "GET",
								"header": [
									{
										"warning": "This is a duplicate header and will be overridden by the Authorization header generated by Postman.",
										"key": "Authorization",
										"value": "Bearer eyJhbGciOiJFUzI1NiIsInR5cCI6IkpXVCJ9.eyJpZCI6NywidXNlck5hbWUiOiJhZG1pbiIsInBob25lIjoiMDgxIiwiZW1haWwiOiJtYWlsQG1haWwuY29tIiwiaW1hZ2VVcmwiOm51bGwsInRva2VuIjpudWxsLCJpYXQiOjE2MzM5MjYyOTQsImV4cCI6MTY2NTAzMDI5NH0.cdxKquzcs8LSvHFX4lvbG2pQ1yTJ4v9wyfX4Cn7uY2Jq7viDRPfcQBJfD255kFcYpa9E_hEq98u-1ZpK_6lX8g",
										"type": "text"
									}
								],
								"url": {
									"raw": "127.0.0.1:3000/user/33",
									"host": [
										"127",
										"0",
										"0",
										"1"
									],
									"port": "3000",
									"path": [
										"user",
										"33"
									]
								}
							},
							"response": []
						},
						{
							"name": "update",
							"request": {
								"auth": {
									"type": "bearer",
									"bearer": [
										{
											"key": "token",
											"value": "eyJhbGciOiJFUzI1NiIsInR5cCI6IkpXVCJ9.eyJpZCI6MzMsImNvbXBhbnlJZCI6bnVsbCwidXNlck5hbWUiOiJhZG1pbiIsInBob25lIjoiMDgxIiwiZW1haWwiOiJtYWlsMTIzQG1haWwuY29tIiwiaW1hZ2VVcmwiOm51bGwsInRva2VuIjpudWxsLCJpYXQiOjE2MzM5NzY4ODksImV4cCI6MTY2NTA4MDg4OX0.T7ttC5L0my1doWb8KB2FyMzn-_KZ7W2lYSs3EG9U6B7OQMlP8zhURWxq3bYjm1CvatXWEZCh7oQjv2hGGVWvoQ",
											"type": "string"
										}
									]
								},
								"method": "PUT",
								"header": [],
								"body": {
									"mode": "raw",
									"raw": "{\n    \"userName\":\"Admin\",    \n    \"phone\":\"08112271195\",\n    \"imageUrl\":\"null\"\n}",
									"options": {
										"raw": {
											"language": "json"
										}
									}
								},
								"url": {
									"raw": "127.0.0.1:3000/user",
									"host": [
										"127",
										"0",
										"0",
										"1"
									],
									"port": "3000",
									"path": [
										"user"
									]
								}
							},
							"response": []
						}
					]
				},
				{
					"name": "store",
					"item": [
						{
							"name": "list",
							"request": {
								"auth": {
									"type": "bearer",
									"bearer": [
										{
											"key": "token",
											"value": "eyJhbGciOiJFUzI1NiIsInR5cCI6IkpXVCJ9.eyJpZCI6NywidXNlck5hbWUiOiJhZG1pbiIsInBob25lIjoiMDgxIiwiZW1haWwiOiJtYWlsQG1haWwuY29tIiwiaW1hZ2VVcmwiOm51bGwsInRva2VuIjpudWxsLCJpYXQiOjE2MzM5MjM5NzEsImV4cCI6MTY2NTAyNzk3MX0.4cVvX3D6gewI3idxnYanObYICLXlphUsmREYCRGHRqai6jkpxPmfl3oAQ8-qle1ZTr9KmdRRc-9tb9Uap8IZqQ",
											"type": "string"
										}
									]
								},
								"method": "GET",
								"header": [
									{
										"warning": "This is a duplicate header and will be overridden by the Authorization header generated by Postman.",
										"key": "Authorization",
										"value": "Bearer eyJhbGciOiJFUzI1NiIsInR5cCI6IkpXVCJ9.eyJpZCI6NywidXNlck5hbWUiOiJhZG1pbiIsInBob25lIjoiMDgxIiwiZW1haWwiOiJtYWlsQG1haWwuY29tIiwiaW1hZ2VVcmwiOm51bGwsInRva2VuIjpudWxsLCJpYXQiOjE2MzM5MjYyOTQsImV4cCI6MTY2NTAzMDI5NH0.cdxKquzcs8LSvHFX4lvbG2pQ1yTJ4v9wyfX4Cn7uY2Jq7viDRPfcQBJfD255kFcYpa9E_hEq98u-1ZpK_6lX8g",
										"type": "text"
									}
								],
								"url": {
									"raw": "127.0.0.1:3000/store?include[]=user&sort=-id&offset=0&limit=5&userId=33",
									"host": [
										"127",
										"0",
										"0",
										"1"
									],
									"port": "3000",
									"path": [
										"store"
									],
									"query": [
										{
											"key": "include[]",
											"value": "user"
										},
										{
											"key": "sort",
											"value": "-id"
										},
										{
											"key": "offset",
											"value": "0"
										},
										{
											"key": "limit",
											"value": "5"
										},
										{
											"key": "userId",
											"value": "33"
										}
									]
								}
							},
							"response": []
						},
						{
							"name": "create",
							"request": {
								"auth": {
									"type": "bearer",
									"bearer": [
										{
											"key": "token",
											"value": "eyJhbGciOiJFUzI1NiIsInR5cCI6IkpXVCJ9.eyJpZCI6MzMsImNvbXBhbnlJZCI6bnVsbCwidXNlck5hbWUiOiJhZG1pbiIsInBob25lIjoiMDgxIiwiZW1haWwiOiJtYWlsMTIzQG1haWwuY29tIiwiaW1hZ2VVcmwiOm51bGwsInRva2VuIjpudWxsLCJpYXQiOjE2MzM5NzY4ODksImV4cCI6MTY2NTA4MDg4OX0.T7ttC5L0my1doWb8KB2FyMzn-_KZ7W2lYSs3EG9U6B7OQMlP8zhURWxq3bYjm1CvatXWEZCh7oQjv2hGGVWvoQ",
											"type": "string"
										}
									]
								},
								"method": "POST",
								"header": [],
								"body": {
									"mode": "raw",
									"raw": "{    \n    \"name\":\"toko ikal\",\n    \"address\":\"address 2\",\n    \"phone\":\"phone 22\",\n    \"email\":\"mail@mail.com 22\",\n    \"userId\":18,\n    \"imageUrl\":null\n}",
									"options": {
										"raw": {
											"language": "json"
										}
									}
								},
								"url": {
									"raw": "127.0.0.1:3000/store",
									"host": [
										"127",
										"0",
										"0",
										"1"
									],
									"port": "3000",
									"path": [
										"store"
									]
								}
							},
							"response": []
						},
						{
							"name": "find one",
							"request": {
								"auth": {
									"type": "bearer",
									"bearer": [
										{
											"key": "token",
											"value": "eyJhbGciOiJFUzI1NiIsInR5cCI6IkpXVCJ9.eyJpZCI6NywidXNlck5hbWUiOiJhZG1pbiIsInBob25lIjoiMDgxIiwiZW1haWwiOiJtYWlsQG1haWwuY29tIiwiaW1hZ2VVcmwiOm51bGwsInRva2VuIjpudWxsLCJpYXQiOjE2MzM5MjM5NzEsImV4cCI6MTY2NTAyNzk3MX0.4cVvX3D6gewI3idxnYanObYICLXlphUsmREYCRGHRqai6jkpxPmfl3oAQ8-qle1ZTr9KmdRRc-9tb9Uap8IZqQ",
											"type": "string"
										}
									]
								},
								"method": "GET",
								"header": [
									{
										"warning": "This is a duplicate header and will be overridden by the Authorization header generated by Postman.",
										"key": "Authorization",
										"value": "Bearer eyJhbGciOiJFUzI1NiIsInR5cCI6IkpXVCJ9.eyJpZCI6NywidXNlck5hbWUiOiJhZG1pbiIsInBob25lIjoiMDgxIiwiZW1haWwiOiJtYWlsQG1haWwuY29tIiwiaW1hZ2VVcmwiOm51bGwsInRva2VuIjpudWxsLCJpYXQiOjE2MzM5MjYyOTQsImV4cCI6MTY2NTAzMDI5NH0.cdxKquzcs8LSvHFX4lvbG2pQ1yTJ4v9wyfX4Cn7uY2Jq7viDRPfcQBJfD255kFcYpa9E_hEq98u-1ZpK_6lX8g",
										"type": "text"
									}
								],
								"url": {
									"raw": "127.0.0.1:3000/store/9?include[]=user",
									"host": [
										"127",
										"0",
										"0",
										"1"
									],
									"port": "3000",
									"path": [
										"store",
										"9"
									],
									"query": [
										{
											"key": "include[]",
											"value": "user"
										}
									]
								}
							},
							"response": []
						},
						{
							"name": "update",
							"request": {
								"auth": {
									"type": "bearer",
									"bearer": [
										{
											"key": "token",
											"value": "eyJhbGciOiJFUzI1NiIsInR5cCI6IkpXVCJ9.eyJpZCI6MzMsImNvbXBhbnlJZCI6bnVsbCwidXNlck5hbWUiOiJhZG1pbiIsInBob25lIjoiMDgxIiwiZW1haWwiOiJtYWlsMTIzQG1haWwuY29tIiwiaW1hZ2VVcmwiOm51bGwsInRva2VuIjpudWxsLCJpYXQiOjE2MzM5NzY4ODksImV4cCI6MTY2NTA4MDg4OX0.T7ttC5L0my1doWb8KB2FyMzn-_KZ7W2lYSs3EG9U6B7OQMlP8zhURWxq3bYjm1CvatXWEZCh7oQjv2hGGVWvoQ",
											"type": "string"
										}
									]
								},
								"method": "PUT",
								"header": [
									{
										"warning": "This is a duplicate header and will be overridden by the Authorization header generated by Postman.",
										"key": "Authorization",
										"value": "Bearer eyJhbGciOiJFUzI1NiIsInR5cCI6IkpXVCJ9.eyJpZCI6NywidXNlck5hbWUiOiJhZG1pbiIsInBob25lIjoiMDgxIiwiZW1haWwiOiJtYWlsQG1haWwuY29tIiwiaW1hZ2VVcmwiOm51bGwsInRva2VuIjpudWxsLCJpYXQiOjE2MzM5MjYyOTQsImV4cCI6MTY2NTAzMDI5NH0.cdxKquzcs8LSvHFX4lvbG2pQ1yTJ4v9wyfX4Cn7uY2Jq7viDRPfcQBJfD255kFcYpa9E_hEq98u-1ZpK_6lX8g",
										"type": "text"
									}
								],
								"body": {
									"mode": "raw",
									"raw": "{    \n    \"name\": \"toko ikal\",\n    \"address\": \"address 2\",\n    \"phone\": \"phone 22\",\n    \"email\": \"mail@mail.com 22\",\n    \"imageUrl\": null,\n    \"userId\": 33\n}",
									"options": {
										"raw": {
											"language": "json"
										}
									}
								},
								"url": {
									"raw": "127.0.0.1:3000/store/9",
									"host": [
										"127",
										"0",
										"0",
										"1"
									],
									"port": "3000",
									"path": [
										"store",
										"9"
									],
									"query": [
										{
											"key": "include[]",
											"value": "user",
											"disabled": true
										}
									]
								}
							},
							"response": []
						},
						{
							"name": "delete",
							"request": {
								"auth": {
									"type": "bearer",
									"bearer": [
										{
											"key": "token",
											"value": "eyJhbGciOiJFUzI1NiIsInR5cCI6IkpXVCJ9.eyJpZCI6MTgsInVzZXJOYW1lIjoiYWRtaW4iLCJwaG9uZSI6IjA4MSIsImVtYWlsIjoibWFpbEBtYWlsLmNvbSIsImltYWdlVXJsIjpudWxsLCJ0b2tlbiI6bnVsbCwiaWF0IjoxNjMzOTI3NDYwLCJleHAiOjE2NjUwMzE0NjB9.OIAO7Y_nbexIxnhF5FW9IpAL7mOCCa6UiLNgq3ADrLKdAN6m-Qe5TM9XFRS3fLef7GiBF96NRz6583WS9jLM6w",
											"type": "string"
										}
									]
								},
								"method": "DELETE",
								"header": [
									{
										"warning": "This is a duplicate header and will be overridden by the Authorization header generated by Postman.",
										"key": "Authorization",
										"value": "Bearer eyJhbGciOiJFUzI1NiIsInR5cCI6IkpXVCJ9.eyJpZCI6NywidXNlck5hbWUiOiJhZG1pbiIsInBob25lIjoiMDgxIiwiZW1haWwiOiJtYWlsQG1haWwuY29tIiwiaW1hZ2VVcmwiOm51bGwsInRva2VuIjpudWxsLCJpYXQiOjE2MzM5MjYyOTQsImV4cCI6MTY2NTAzMDI5NH0.cdxKquzcs8LSvHFX4lvbG2pQ1yTJ4v9wyfX4Cn7uY2Jq7viDRPfcQBJfD255kFcYpa9E_hEq98u-1ZpK_6lX8g",
										"type": "text"
									}
								],
								"url": {
									"raw": "127.0.0.1:3000/store/5",
									"host": [
										"127",
										"0",
										"0",
										"1"
									],
									"port": "3000",
									"path": [
										"store",
										"5"
									]
								}
							},
							"response": []
						}
					]
				},
				{
					"name": "product",
					"item": [
						{
							"name": "list",
							"request": {
								"auth": {
									"type": "bearer",
									"bearer": [
										{
											"key": "token",
											"value": "eyJhbGciOiJFUzI1NiIsInR5cCI6IkpXVCJ9.eyJpZCI6NywidXNlck5hbWUiOiJhZG1pbiIsInBob25lIjoiMDgxIiwiZW1haWwiOiJtYWlsQG1haWwuY29tIiwiaW1hZ2VVcmwiOm51bGwsInRva2VuIjpudWxsLCJpYXQiOjE2MzM5MjM5NzEsImV4cCI6MTY2NTAyNzk3MX0.4cVvX3D6gewI3idxnYanObYICLXlphUsmREYCRGHRqai6jkpxPmfl3oAQ8-qle1ZTr9KmdRRc-9tb9Uap8IZqQ",
											"type": "string"
										}
									]
								},
								"method": "GET",
								"header": [
									{
										"warning": "This is a duplicate header and will be overridden by the Authorization header generated by Postman.",
										"key": "Authorization",
										"value": "Bearer eyJhbGciOiJFUzI1NiIsInR5cCI6IkpXVCJ9.eyJpZCI6NywidXNlck5hbWUiOiJhZG1pbiIsInBob25lIjoiMDgxIiwiZW1haWwiOiJtYWlsQG1haWwuY29tIiwiaW1hZ2VVcmwiOm51bGwsInRva2VuIjpudWxsLCJpYXQiOjE2MzM5MjYyOTQsImV4cCI6MTY2NTAzMDI5NH0.cdxKquzcs8LSvHFX4lvbG2pQ1yTJ4v9wyfX4Cn7uY2Jq7viDRPfcQBJfD255kFcYpa9E_hEq98u-1ZpK_6lX8g",
										"type": "text"
									}
								],
								"url": {
									"raw": "127.0.0.1:3003/product?include[]=user&include[]=store&name&userId=33&storeId&sort=-id&offset=1&limit=5",
									"host": [
										"127",
										"0",
										"0",
										"1"
									],
									"port": "3003",
									"path": [
										"product"
									],
									"query": [
										{
											"key": "include[]",
											"value": "user"
										},
										{
											"key": "include[]",
											"value": "store"
										},
										{
											"key": "name",
											"value": null
										},
										{
											"key": "userId",
											"value": "33"
										},
										{
											"key": "storeId",
											"value": null
										},
										{
											"key": "sort",
											"value": "-id"
										},
										{
											"key": "offset",
											"value": "1"
										},
										{
											"key": "limit",
											"value": "5"
										}
									]
								}
							},
							"response": []
						},
						{
							"name": "create",
							"request": {
								"auth": {
									"type": "bearer",
									"bearer": [
										{
											"key": "token",
											"value": "eyJhbGciOiJFUzI1NiIsInR5cCI6IkpXVCJ9.eyJpZCI6MzMsImNvbXBhbnlJZCI6bnVsbCwidXNlck5hbWUiOiJhZG1pbiIsInBob25lIjoiMDgxIiwiZW1haWwiOiJtYWlsMTIzQG1haWwuY29tIiwiaW1hZ2VVcmwiOm51bGwsInRva2VuIjpudWxsLCJpYXQiOjE2MzM5NzY4ODksImV4cCI6MTY2NTA4MDg4OX0.T7ttC5L0my1doWb8KB2FyMzn-_KZ7W2lYSs3EG9U6B7OQMlP8zhURWxq3bYjm1CvatXWEZCh7oQjv2hGGVWvoQ",
											"type": "string"
										}
									]
								},
								"method": "POST",
								"header": [],
								"body": {
									"mode": "raw",
									"raw": "{    \n    \"name\":\"product a5\",\n    \"description\":\"description\",\n    \"imageUrl\":null,\n    \"userId\":33,\n    \"storeId\":9\n}",
									"options": {
										"raw": {
											"language": "json"
										}
									}
								},
								"url": {
									"raw": "127.0.0.1:3000/product",
									"host": [
										"127",
										"0",
										"0",
										"1"
									],
									"port": "3000",
									"path": [
										"product"
									]
								}
							},
							"response": []
						},
						{
							"name": "find one",
							"request": {
								"auth": {
									"type": "bearer",
									"bearer": [
										{
											"key": "token",
											"value": "eyJhbGciOiJFUzI1NiIsInR5cCI6IkpXVCJ9.eyJpZCI6NywidXNlck5hbWUiOiJhZG1pbiIsInBob25lIjoiMDgxIiwiZW1haWwiOiJtYWlsQG1haWwuY29tIiwiaW1hZ2VVcmwiOm51bGwsInRva2VuIjpudWxsLCJpYXQiOjE2MzM5MjM5NzEsImV4cCI6MTY2NTAyNzk3MX0.4cVvX3D6gewI3idxnYanObYICLXlphUsmREYCRGHRqai6jkpxPmfl3oAQ8-qle1ZTr9KmdRRc-9tb9Uap8IZqQ",
											"type": "string"
										}
									]
								},
								"method": "GET",
								"header": [
									{
										"warning": "This is a duplicate header and will be overridden by the Authorization header generated by Postman.",
										"key": "Authorization",
										"value": "Bearer eyJhbGciOiJFUzI1NiIsInR5cCI6IkpXVCJ9.eyJpZCI6NywidXNlck5hbWUiOiJhZG1pbiIsInBob25lIjoiMDgxIiwiZW1haWwiOiJtYWlsQG1haWwuY29tIiwiaW1hZ2VVcmwiOm51bGwsInRva2VuIjpudWxsLCJpYXQiOjE2MzM5MjYyOTQsImV4cCI6MTY2NTAzMDI5NH0.cdxKquzcs8LSvHFX4lvbG2pQ1yTJ4v9wyfX4Cn7uY2Jq7viDRPfcQBJfD255kFcYpa9E_hEq98u-1ZpK_6lX8g",
										"type": "text"
									}
								],
								"url": {
									"raw": "127.0.0.1:3000/product/16?include[]=user&include[]=store",
									"host": [
										"127",
										"0",
										"0",
										"1"
									],
									"port": "3000",
									"path": [
										"product",
										"16"
									],
									"query": [
										{
											"key": "include[]",
											"value": "user"
										},
										{
											"key": "include[]",
											"value": "store"
										}
									]
								}
							},
							"response": []
						},
						{
							"name": "update",
							"request": {
								"auth": {
									"type": "bearer",
									"bearer": [
										{
											"key": "token",
											"value": "eyJhbGciOiJFUzI1NiIsInR5cCI6IkpXVCJ9.eyJpZCI6MzMsImNvbXBhbnlJZCI6bnVsbCwidXNlck5hbWUiOiJhZG1pbiIsInBob25lIjoiMDgxIiwiZW1haWwiOiJtYWlsMTIzQG1haWwuY29tIiwiaW1hZ2VVcmwiOm51bGwsInRva2VuIjpudWxsLCJpYXQiOjE2MzM5NzY4ODksImV4cCI6MTY2NTA4MDg4OX0.T7ttC5L0my1doWb8KB2FyMzn-_KZ7W2lYSs3EG9U6B7OQMlP8zhURWxq3bYjm1CvatXWEZCh7oQjv2hGGVWvoQ",
											"type": "string"
										}
									]
								},
								"method": "PUT",
								"header": [
									{
										"warning": "This is a duplicate header and will be overridden by the Authorization header generated by Postman.",
										"key": "Authorization",
										"value": "Bearer eyJhbGciOiJFUzI1NiIsInR5cCI6IkpXVCJ9.eyJpZCI6NywidXNlck5hbWUiOiJhZG1pbiIsInBob25lIjoiMDgxIiwiZW1haWwiOiJtYWlsQG1haWwuY29tIiwiaW1hZ2VVcmwiOm51bGwsInRva2VuIjpudWxsLCJpYXQiOjE2MzM5MjYyOTQsImV4cCI6MTY2NTAzMDI5NH0.cdxKquzcs8LSvHFX4lvbG2pQ1yTJ4v9wyfX4Cn7uY2Jq7viDRPfcQBJfD255kFcYpa9E_hEq98u-1ZpK_6lX8g",
										"type": "text"
									}
								],
								"body": {
									"mode": "raw",
									"raw": "{    \n    \"name\":\"product 16a\",\n    \"description\":\"descriptions\",\n    \"imageUrl\": null,\n    \"userId\":33,\n    \"storeId\":9\n}",
									"options": {
										"raw": {
											"language": "json"
										}
									}
								},
								"url": {
									"raw": "127.0.0.1:3000/product/16",
									"host": [
										"127",
										"0",
										"0",
										"1"
									],
									"port": "3000",
									"path": [
										"product",
										"16"
									],
									"query": [
										{
											"key": "include[]",
											"value": "user",
											"disabled": true
										}
									]
								}
							},
							"response": []
						},
						{
							"name": "delete",
							"request": {
								"auth": {
									"type": "bearer",
									"bearer": [
										{
											"key": "token",
											"value": "eyJhbGciOiJFUzI1NiIsInR5cCI6IkpXVCJ9.eyJpZCI6MzMsImNvbXBhbnlJZCI6bnVsbCwidXNlck5hbWUiOiJhZG1pbiIsInBob25lIjoiMDgxIiwiZW1haWwiOiJtYWlsMTIzQG1haWwuY29tIiwiaW1hZ2VVcmwiOm51bGwsInRva2VuIjpudWxsLCJpYXQiOjE2MzM5NzY4ODksImV4cCI6MTY2NTA4MDg4OX0.T7ttC5L0my1doWb8KB2FyMzn-_KZ7W2lYSs3EG9U6B7OQMlP8zhURWxq3bYjm1CvatXWEZCh7oQjv2hGGVWvoQ",
											"type": "string"
										}
									]
								},
								"method": "DELETE",
								"header": [
									{
										"warning": "This is a duplicate header and will be overridden by the Authorization header generated by Postman.",
										"key": "Authorization",
										"value": "Bearer eyJhbGciOiJFUzI1NiIsInR5cCI6IkpXVCJ9.eyJpZCI6NywidXNlck5hbWUiOiJhZG1pbiIsInBob25lIjoiMDgxIiwiZW1haWwiOiJtYWlsQG1haWwuY29tIiwiaW1hZ2VVcmwiOm51bGwsInRva2VuIjpudWxsLCJpYXQiOjE2MzM5MjYyOTQsImV4cCI6MTY2NTAzMDI5NH0.cdxKquzcs8LSvHFX4lvbG2pQ1yTJ4v9wyfX4Cn7uY2Jq7viDRPfcQBJfD255kFcYpa9E_hEq98u-1ZpK_6lX8g",
										"type": "text"
									}
								],
								"url": {
									"raw": "127.0.0.1:3000/product/16",
									"host": [
										"127",
										"0",
										"0",
										"1"
									],
									"port": "3000",
									"path": [
										"product",
										"16"
									]
								}
							},
							"response": []
						}
					]
				}
			]
		},
		{
			"name": "user ms",
			"item": [
				{
					"name": "register",
					"request": {
						"method": "POST",
						"header": [],
						"body": {
							"mode": "raw",
							"raw": "{\n    \"userName\":\"admin\",\n    \"email\":\"mail@mail.com\",\n    \"password\":\"password\",\n    \"name\":\"name\",\n    \"phone\":\"081\",\n    \"imageUrl\":null\n}",
							"options": {
								"raw": {
									"language": "json"
								}
							}
						},
						"url": {
							"raw": "127.0.0.1:3001/user",
							"host": [
								"127",
								"0",
								"0",
								"1"
							],
							"port": "3001",
							"path": [
								"user"
							]
						}
					},
					"response": []
				},
				{
					"name": "login",
					"request": {
						"method": "POST",
						"header": [],
						"body": {
							"mode": "raw",
							"raw": "{    \n    \"email\":\"mail@mail.com\",\n    \"password\":\"password123!\"\n}",
							"options": {
								"raw": {
									"language": "json"
								}
							}
						},
						"url": {
							"raw": "127.0.0.1:3001/user/login",
							"host": [
								"127",
								"0",
								"0",
								"1"
							],
							"port": "3001",
							"path": [
								"user",
								"login"
							]
						}
					},
					"response": []
				},
				{
					"name": "validate",
					"request": {
						"auth": {
							"type": "bearer",
							"bearer": [
								{
									"key": "token",
									"value": "eyJhbGciOiJFUzI1NiIsInR5cCI6IkpXVCJ9.eyJpZCI6MTgsInVzZXJOYW1lIjoiYWRtaW4iLCJwaG9uZSI6IjA4MSIsImVtYWlsIjoibWFpbEBtYWlsLmNvbSIsImltYWdlVXJsIjpudWxsLCJ0b2tlbiI6bnVsbCwiaWF0IjoxNjMzOTI3NDYwLCJleHAiOjE2NjUwMzE0NjB9.OIAO7Y_nbexIxnhF5FW9IpAL7mOCCa6UiLNgq3ADrLKdAN6m-Qe5TM9XFRS3fLef7GiBF96NRz6583WS9jLM6w",
									"type": "string"
								}
							]
						},
						"method": "GET",
						"header": [
							{
								"warning": "This is a duplicate header and will be overridden by the Authorization header generated by Postman.",
								"key": "Authorization",
								"value": "Bearer eyJhbGciOiJFUzI1NiIsInR5cCI6IkpXVCJ9.eyJpZCI6NywidXNlck5hbWUiOiJhZG1pbiIsInBob25lIjoiMDgxIiwiZW1haWwiOiJtYWlsQG1haWwuY29tIiwiaW1hZ2VVcmwiOm51bGwsInRva2VuIjpudWxsLCJpYXQiOjE2MzM5MjYyOTQsImV4cCI6MTY2NTAzMDI5NH0.cdxKquzcs8LSvHFX4lvbG2pQ1yTJ4v9wyfX4Cn7uY2Jq7viDRPfcQBJfD255kFcYpa9E_hEq98u-1ZpK_6lX8g",
								"type": "text"
							}
						],
						"url": {
							"raw": "127.0.0.1:3001/user",
							"host": [
								"127",
								"0",
								"0",
								"1"
							],
							"port": "3001",
							"path": [
								"user"
							]
						}
					},
					"response": []
				},
				{
					"name": "find one",
					"request": {
						"auth": {
							"type": "bearer",
							"bearer": [
								{
									"key": "token",
									"value": "eyJhbGciOiJFUzI1NiIsInR5cCI6IkpXVCJ9.eyJpZCI6NywidXNlck5hbWUiOiJhZG1pbiIsInBob25lIjoiMDgxIiwiZW1haWwiOiJtYWlsQG1haWwuY29tIiwiaW1hZ2VVcmwiOm51bGwsInRva2VuIjpudWxsLCJpYXQiOjE2MzM5MjM5NzEsImV4cCI6MTY2NTAyNzk3MX0.4cVvX3D6gewI3idxnYanObYICLXlphUsmREYCRGHRqai6jkpxPmfl3oAQ8-qle1ZTr9KmdRRc-9tb9Uap8IZqQ",
									"type": "string"
								}
							]
						},
						"method": "GET",
						"header": [
							{
								"warning": "This is a duplicate header and will be overridden by the Authorization header generated by Postman.",
								"key": "Authorization",
								"value": "Bearer eyJhbGciOiJFUzI1NiIsInR5cCI6IkpXVCJ9.eyJpZCI6NywidXNlck5hbWUiOiJhZG1pbiIsInBob25lIjoiMDgxIiwiZW1haWwiOiJtYWlsQG1haWwuY29tIiwiaW1hZ2VVcmwiOm51bGwsInRva2VuIjpudWxsLCJpYXQiOjE2MzM5MjYyOTQsImV4cCI6MTY2NTAzMDI5NH0.cdxKquzcs8LSvHFX4lvbG2pQ1yTJ4v9wyfX4Cn7uY2Jq7viDRPfcQBJfD255kFcYpa9E_hEq98u-1ZpK_6lX8g",
								"type": "text"
							}
						],
						"url": {
							"raw": "127.0.0.1:3001/user",
							"host": [
								"127",
								"0",
								"0",
								"1"
							],
							"port": "3001",
							"path": [
								"user"
							]
						}
					},
					"response": []
				},
				{
					"name": "update",
					"request": {
						"auth": {
							"type": "bearer",
							"bearer": [
								{
									"key": "token",
									"value": "eyJhbGciOiJFUzI1NiIsInR5cCI6IkpXVCJ9.eyJpZCI6MTgsInVzZXJOYW1lIjoiYWRtaW4iLCJwaG9uZSI6IjA4MSIsImVtYWlsIjoibWFpbEBtYWlsLmNvbSIsImltYWdlVXJsIjpudWxsLCJ0b2tlbiI6bnVsbCwiaWF0IjoxNjMzOTI3NDYwLCJleHAiOjE2NjUwMzE0NjB9.OIAO7Y_nbexIxnhF5FW9IpAL7mOCCa6UiLNgq3ADrLKdAN6m-Qe5TM9XFRS3fLef7GiBF96NRz6583WS9jLM6w",
									"type": "string"
								}
							]
						},
						"method": "PUT",
						"header": [],
						"body": {
							"mode": "raw",
							"raw": "{\n    \"userName\":\"hehe\",    \n    \"phone\":\"081\",\n    \"imageUrl\":null\n}",
							"options": {
								"raw": {
									"language": "json"
								}
							}
						},
						"url": {
							"raw": "127.0.0.1:3001/user",
							"host": [
								"127",
								"0",
								"0",
								"1"
							],
							"port": "3001",
							"path": [
								"user"
							]
						}
					},
					"response": []
				}
			]
		},
		{
			"name": "store ms",
			"item": [
				{
					"name": "list",
					"request": {
						"auth": {
							"type": "bearer",
							"bearer": [
								{
									"key": "token",
									"value": "eyJhbGciOiJFUzI1NiIsInR5cCI6IkpXVCJ9.eyJpZCI6NywidXNlck5hbWUiOiJhZG1pbiIsInBob25lIjoiMDgxIiwiZW1haWwiOiJtYWlsQG1haWwuY29tIiwiaW1hZ2VVcmwiOm51bGwsInRva2VuIjpudWxsLCJpYXQiOjE2MzM5MjM5NzEsImV4cCI6MTY2NTAyNzk3MX0.4cVvX3D6gewI3idxnYanObYICLXlphUsmREYCRGHRqai6jkpxPmfl3oAQ8-qle1ZTr9KmdRRc-9tb9Uap8IZqQ",
									"type": "string"
								}
							]
						},
						"method": "GET",
						"header": [
							{
								"warning": "This is a duplicate header and will be overridden by the Authorization header generated by Postman.",
								"key": "Authorization",
								"value": "Bearer eyJhbGciOiJFUzI1NiIsInR5cCI6IkpXVCJ9.eyJpZCI6NywidXNlck5hbWUiOiJhZG1pbiIsInBob25lIjoiMDgxIiwiZW1haWwiOiJtYWlsQG1haWwuY29tIiwiaW1hZ2VVcmwiOm51bGwsInRva2VuIjpudWxsLCJpYXQiOjE2MzM5MjYyOTQsImV4cCI6MTY2NTAzMDI5NH0.cdxKquzcs8LSvHFX4lvbG2pQ1yTJ4v9wyfX4Cn7uY2Jq7viDRPfcQBJfD255kFcYpa9E_hEq98u-1ZpK_6lX8g",
								"type": "text"
							}
						],
						"url": {
							"raw": "127.0.0.1:3002/store?include[]=user&sort=-id&offset=0&limit=5&userId=33",
							"host": [
								"127",
								"0",
								"0",
								"1"
							],
							"port": "3002",
							"path": [
								"store"
							],
							"query": [
								{
									"key": "include[]",
									"value": "user"
								},
								{
									"key": "sort",
									"value": "-id"
								},
								{
									"key": "offset",
									"value": "0"
								},
								{
									"key": "limit",
									"value": "5"
								},
								{
									"key": "userId",
									"value": "33"
								}
							]
						}
					},
					"response": []
				},
				{
					"name": "create",
					"request": {
						"auth": {
							"type": "bearer",
							"bearer": [
								{
									"key": "token",
									"value": "eyJhbGciOiJFUzI1NiIsInR5cCI6IkpXVCJ9.eyJpZCI6MTgsInVzZXJOYW1lIjoiYWRtaW4iLCJwaG9uZSI6IjA4MSIsImVtYWlsIjoibWFpbEBtYWlsLmNvbSIsImltYWdlVXJsIjpudWxsLCJ0b2tlbiI6bnVsbCwiaWF0IjoxNjMzOTI3NDYwLCJleHAiOjE2NjUwMzE0NjB9.OIAO7Y_nbexIxnhF5FW9IpAL7mOCCa6UiLNgq3ADrLKdAN6m-Qe5TM9XFRS3fLef7GiBF96NRz6583WS9jLM6w",
									"type": "string"
								}
							]
						},
						"method": "POST",
						"header": [],
						"body": {
							"mode": "raw",
							"raw": "{    \n    \"name\":\"name\",\n    \"address\":\"address\",\n    \"phone\":\"phone\",\n    \"email\":\"mail@mail.com\",\n    \"userId\":1,\n    \"imageUrl\":null\n}",
							"options": {
								"raw": {
									"language": "json"
								}
							}
						},
						"url": {
							"raw": "127.0.0.1:3002/store",
							"host": [
								"127",
								"0",
								"0",
								"1"
							],
							"port": "3002",
							"path": [
								"store"
							]
						}
					},
					"response": []
				},
				{
					"name": "find one",
					"request": {
						"auth": {
							"type": "bearer",
							"bearer": [
								{
									"key": "token",
									"value": "eyJhbGciOiJFUzI1NiIsInR5cCI6IkpXVCJ9.eyJpZCI6NywidXNlck5hbWUiOiJhZG1pbiIsInBob25lIjoiMDgxIiwiZW1haWwiOiJtYWlsQG1haWwuY29tIiwiaW1hZ2VVcmwiOm51bGwsInRva2VuIjpudWxsLCJpYXQiOjE2MzM5MjM5NzEsImV4cCI6MTY2NTAyNzk3MX0.4cVvX3D6gewI3idxnYanObYICLXlphUsmREYCRGHRqai6jkpxPmfl3oAQ8-qle1ZTr9KmdRRc-9tb9Uap8IZqQ",
									"type": "string"
								}
							]
						},
						"method": "GET",
						"header": [
							{
								"warning": "This is a duplicate header and will be overridden by the Authorization header generated by Postman.",
								"key": "Authorization",
								"value": "Bearer eyJhbGciOiJFUzI1NiIsInR5cCI6IkpXVCJ9.eyJpZCI6NywidXNlck5hbWUiOiJhZG1pbiIsInBob25lIjoiMDgxIiwiZW1haWwiOiJtYWlsQG1haWwuY29tIiwiaW1hZ2VVcmwiOm51bGwsInRva2VuIjpudWxsLCJpYXQiOjE2MzM5MjYyOTQsImV4cCI6MTY2NTAzMDI5NH0.cdxKquzcs8LSvHFX4lvbG2pQ1yTJ4v9wyfX4Cn7uY2Jq7viDRPfcQBJfD255kFcYpa9E_hEq98u-1ZpK_6lX8g",
								"type": "text"
							}
						],
						"url": {
							"raw": "127.0.0.1:3002/store/4?include[]=user",
							"host": [
								"127",
								"0",
								"0",
								"1"
							],
							"port": "3002",
							"path": [
								"store",
								"4"
							],
							"query": [
								{
									"key": "include[]",
									"value": "user"
								}
							]
						}
					},
					"response": []
				},
				{
					"name": "update",
					"request": {
						"auth": {
							"type": "bearer",
							"bearer": [
								{
									"key": "token",
									"value": "eyJhbGciOiJFUzI1NiIsInR5cCI6IkpXVCJ9.eyJpZCI6MTgsInVzZXJOYW1lIjoiYWRtaW4iLCJwaG9uZSI6IjA4MSIsImVtYWlsIjoibWFpbEBtYWlsLmNvbSIsImltYWdlVXJsIjpudWxsLCJ0b2tlbiI6bnVsbCwiaWF0IjoxNjMzOTI3NDYwLCJleHAiOjE2NjUwMzE0NjB9.OIAO7Y_nbexIxnhF5FW9IpAL7mOCCa6UiLNgq3ADrLKdAN6m-Qe5TM9XFRS3fLef7GiBF96NRz6583WS9jLM6w",
									"type": "string"
								}
							]
						},
						"method": "PUT",
						"header": [
							{
								"warning": "This is a duplicate header and will be overridden by the Authorization header generated by Postman.",
								"key": "Authorization",
								"value": "Bearer eyJhbGciOiJFUzI1NiIsInR5cCI6IkpXVCJ9.eyJpZCI6NywidXNlck5hbWUiOiJhZG1pbiIsInBob25lIjoiMDgxIiwiZW1haWwiOiJtYWlsQG1haWwuY29tIiwiaW1hZ2VVcmwiOm51bGwsInRva2VuIjpudWxsLCJpYXQiOjE2MzM5MjYyOTQsImV4cCI6MTY2NTAzMDI5NH0.cdxKquzcs8LSvHFX4lvbG2pQ1yTJ4v9wyfX4Cn7uY2Jq7viDRPfcQBJfD255kFcYpa9E_hEq98u-1ZpK_6lX8g",
								"type": "text"
							}
						],
						"body": {
							"mode": "raw",
							"raw": "{    \n    \"name\":\"name\",\n    \"address\":\"address\",\n    \"phone\":\"phone\",\n    \"email\":\"mail@mail.com\",\n    \"userId\":18,\n    \"imageUrl\":\"null\"\n}",
							"options": {
								"raw": {
									"language": "json"
								}
							}
						},
						"url": {
							"raw": "127.0.0.1:3002/store/5",
							"host": [
								"127",
								"0",
								"0",
								"1"
							],
							"port": "3002",
							"path": [
								"store",
								"5"
							],
							"query": [
								{
									"key": "include[]",
									"value": "user",
									"disabled": true
								}
							]
						}
					},
					"response": []
				},
				{
					"name": "delete",
					"request": {
						"auth": {
							"type": "bearer",
							"bearer": [
								{
									"key": "token",
									"value": "eyJhbGciOiJFUzI1NiIsInR5cCI6IkpXVCJ9.eyJpZCI6MTgsInVzZXJOYW1lIjoiYWRtaW4iLCJwaG9uZSI6IjA4MSIsImVtYWlsIjoibWFpbEBtYWlsLmNvbSIsImltYWdlVXJsIjpudWxsLCJ0b2tlbiI6bnVsbCwiaWF0IjoxNjMzOTI3NDYwLCJleHAiOjE2NjUwMzE0NjB9.OIAO7Y_nbexIxnhF5FW9IpAL7mOCCa6UiLNgq3ADrLKdAN6m-Qe5TM9XFRS3fLef7GiBF96NRz6583WS9jLM6w",
									"type": "string"
								}
							]
						},
						"method": "DELETE",
						"header": [
							{
								"warning": "This is a duplicate header and will be overridden by the Authorization header generated by Postman.",
								"key": "Authorization",
								"value": "Bearer eyJhbGciOiJFUzI1NiIsInR5cCI6IkpXVCJ9.eyJpZCI6NywidXNlck5hbWUiOiJhZG1pbiIsInBob25lIjoiMDgxIiwiZW1haWwiOiJtYWlsQG1haWwuY29tIiwiaW1hZ2VVcmwiOm51bGwsInRva2VuIjpudWxsLCJpYXQiOjE2MzM5MjYyOTQsImV4cCI6MTY2NTAzMDI5NH0.cdxKquzcs8LSvHFX4lvbG2pQ1yTJ4v9wyfX4Cn7uY2Jq7viDRPfcQBJfD255kFcYpa9E_hEq98u-1ZpK_6lX8g",
								"type": "text"
							}
						],
						"url": {
							"raw": "127.0.0.1:3002/store/5",
							"host": [
								"127",
								"0",
								"0",
								"1"
							],
							"port": "3002",
							"path": [
								"store",
								"5"
							]
						}
					},
					"response": []
				}
			]
		},
		{
			"name": "product ms",
			"item": [
				{
					"name": "list",
					"request": {
						"auth": {
							"type": "bearer",
							"bearer": [
								{
									"key": "token",
									"value": "eyJhbGciOiJFUzI1NiIsInR5cCI6IkpXVCJ9.eyJpZCI6NywidXNlck5hbWUiOiJhZG1pbiIsInBob25lIjoiMDgxIiwiZW1haWwiOiJtYWlsQG1haWwuY29tIiwiaW1hZ2VVcmwiOm51bGwsInRva2VuIjpudWxsLCJpYXQiOjE2MzM5MjM5NzEsImV4cCI6MTY2NTAyNzk3MX0.4cVvX3D6gewI3idxnYanObYICLXlphUsmREYCRGHRqai6jkpxPmfl3oAQ8-qle1ZTr9KmdRRc-9tb9Uap8IZqQ",
									"type": "string"
								}
							]
						},
						"method": "GET",
						"header": [
							{
								"warning": "This is a duplicate header and will be overridden by the Authorization header generated by Postman.",
								"key": "Authorization",
								"value": "Bearer eyJhbGciOiJFUzI1NiIsInR5cCI6IkpXVCJ9.eyJpZCI6NywidXNlck5hbWUiOiJhZG1pbiIsInBob25lIjoiMDgxIiwiZW1haWwiOiJtYWlsQG1haWwuY29tIiwiaW1hZ2VVcmwiOm51bGwsInRva2VuIjpudWxsLCJpYXQiOjE2MzM5MjYyOTQsImV4cCI6MTY2NTAzMDI5NH0.cdxKquzcs8LSvHFX4lvbG2pQ1yTJ4v9wyfX4Cn7uY2Jq7viDRPfcQBJfD255kFcYpa9E_hEq98u-1ZpK_6lX8g",
								"type": "text"
							}
						],
						"url": {
							"raw": "127.0.0.1:3003/product?include[]=user&include[]=store&name&userId&storeId&sort=-id&offset=0&limit=5",
							"host": [
								"127",
								"0",
								"0",
								"1"
							],
							"port": "3003",
							"path": [
								"product"
							],
							"query": [
								{
									"key": "include[]",
									"value": "user"
								},
								{
									"key": "include[]",
									"value": "store"
								},
								{
									"key": "name",
									"value": null
								},
								{
									"key": "userId",
									"value": null
								},
								{
									"key": "storeId",
									"value": null
								},
								{
									"key": "sort",
									"value": "-id"
								},
								{
									"key": "offset",
									"value": "0"
								},
								{
									"key": "limit",
									"value": "5"
								}
							]
						}
					},
					"response": []
				},
				{
					"name": "create",
					"request": {
						"auth": {
							"type": "bearer",
							"bearer": [
								{
									"key": "token",
									"value": "eyJhbGciOiJFUzI1NiIsInR5cCI6IkpXVCJ9.eyJpZCI6MTgsInVzZXJOYW1lIjoiYWRtaW4iLCJwaG9uZSI6IjA4MSIsImVtYWlsIjoibWFpbEBtYWlsLmNvbSIsImltYWdlVXJsIjpudWxsLCJ0b2tlbiI6bnVsbCwiaWF0IjoxNjMzOTI3NDYwLCJleHAiOjE2NjUwMzE0NjB9.OIAO7Y_nbexIxnhF5FW9IpAL7mOCCa6UiLNgq3ADrLKdAN6m-Qe5TM9XFRS3fLef7GiBF96NRz6583WS9jLM6w",
									"type": "string"
								}
							]
						},
						"method": "POST",
						"header": [],
						"body": {
							"mode": "raw",
							"raw": "{    \n    \"name\":\"product 2\",\n    \"description\":\"description\",\n    \"imageUrl\": \"img\",\n    \"userId\":18,\n    \"storeId\":5\n}",
							"options": {
								"raw": {
									"language": "json"
								}
							}
						},
						"url": {
							"raw": "127.0.0.1:3003/product",
							"host": [
								"127",
								"0",
								"0",
								"1"
							],
							"port": "3003",
							"path": [
								"product"
							]
						}
					},
					"response": []
				},
				{
					"name": "find one",
					"request": {
						"auth": {
							"type": "bearer",
							"bearer": [
								{
									"key": "token",
									"value": "eyJhbGciOiJFUzI1NiIsInR5cCI6IkpXVCJ9.eyJpZCI6NywidXNlck5hbWUiOiJhZG1pbiIsInBob25lIjoiMDgxIiwiZW1haWwiOiJtYWlsQG1haWwuY29tIiwiaW1hZ2VVcmwiOm51bGwsInRva2VuIjpudWxsLCJpYXQiOjE2MzM5MjM5NzEsImV4cCI6MTY2NTAyNzk3MX0.4cVvX3D6gewI3idxnYanObYICLXlphUsmREYCRGHRqai6jkpxPmfl3oAQ8-qle1ZTr9KmdRRc-9tb9Uap8IZqQ",
									"type": "string"
								}
							]
						},
						"method": "GET",
						"header": [
							{
								"warning": "This is a duplicate header and will be overridden by the Authorization header generated by Postman.",
								"key": "Authorization",
								"value": "Bearer eyJhbGciOiJFUzI1NiIsInR5cCI6IkpXVCJ9.eyJpZCI6NywidXNlck5hbWUiOiJhZG1pbiIsInBob25lIjoiMDgxIiwiZW1haWwiOiJtYWlsQG1haWwuY29tIiwiaW1hZ2VVcmwiOm51bGwsInRva2VuIjpudWxsLCJpYXQiOjE2MzM5MjYyOTQsImV4cCI6MTY2NTAzMDI5NH0.cdxKquzcs8LSvHFX4lvbG2pQ1yTJ4v9wyfX4Cn7uY2Jq7viDRPfcQBJfD255kFcYpa9E_hEq98u-1ZpK_6lX8g",
								"type": "text"
							}
						],
						"url": {
							"raw": "127.0.0.1:3003/product/1?include[]=user&include[]=store",
							"host": [
								"127",
								"0",
								"0",
								"1"
							],
							"port": "3003",
							"path": [
								"product",
								"1"
							],
							"query": [
								{
									"key": "include[]",
									"value": "user"
								},
								{
									"key": "include[]",
									"value": "store"
								}
							]
						}
					},
					"response": []
				},
				{
					"name": "update",
					"request": {
						"auth": {
							"type": "bearer",
							"bearer": [
								{
									"key": "token",
									"value": "eyJhbGciOiJFUzI1NiIsInR5cCI6IkpXVCJ9.eyJpZCI6MTgsInVzZXJOYW1lIjoiYWRtaW4iLCJwaG9uZSI6IjA4MSIsImVtYWlsIjoibWFpbEBtYWlsLmNvbSIsImltYWdlVXJsIjpudWxsLCJ0b2tlbiI6bnVsbCwiaWF0IjoxNjMzOTI3NDYwLCJleHAiOjE2NjUwMzE0NjB9.OIAO7Y_nbexIxnhF5FW9IpAL7mOCCa6UiLNgq3ADrLKdAN6m-Qe5TM9XFRS3fLef7GiBF96NRz6583WS9jLM6w",
									"type": "string"
								}
							]
						},
						"method": "PUT",
						"header": [
							{
								"warning": "This is a duplicate header and will be overridden by the Authorization header generated by Postman.",
								"key": "Authorization",
								"value": "Bearer eyJhbGciOiJFUzI1NiIsInR5cCI6IkpXVCJ9.eyJpZCI6NywidXNlck5hbWUiOiJhZG1pbiIsInBob25lIjoiMDgxIiwiZW1haWwiOiJtYWlsQG1haWwuY29tIiwiaW1hZ2VVcmwiOm51bGwsInRva2VuIjpudWxsLCJpYXQiOjE2MzM5MjYyOTQsImV4cCI6MTY2NTAzMDI5NH0.cdxKquzcs8LSvHFX4lvbG2pQ1yTJ4v9wyfX4Cn7uY2Jq7viDRPfcQBJfD255kFcYpa9E_hEq98u-1ZpK_6lX8g",
								"type": "text"
							}
						],
						"body": {
							"mode": "raw",
							"raw": "{    \n    \"name\":\"product 11\",\n    \"description\":\"description\",\n    \"imageUrl\": \"img\",\n    \"userId\":18,\n    \"storeId\":5\n}",
							"options": {
								"raw": {
									"language": "json"
								}
							}
						},
						"url": {
							"raw": "127.0.0.1:3003/product/1",
							"host": [
								"127",
								"0",
								"0",
								"1"
							],
							"port": "3003",
							"path": [
								"product",
								"1"
							],
							"query": [
								{
									"key": "include[]",
									"value": "user",
									"disabled": true
								}
							]
						}
					},
					"response": []
				},
				{
					"name": "delete",
					"request": {
						"auth": {
							"type": "bearer",
							"bearer": [
								{
									"key": "token",
									"value": "eyJhbGciOiJFUzI1NiIsInR5cCI6IkpXVCJ9.eyJpZCI6MTgsInVzZXJOYW1lIjoiYWRtaW4iLCJwaG9uZSI6IjA4MSIsImVtYWlsIjoibWFpbEBtYWlsLmNvbSIsImltYWdlVXJsIjpudWxsLCJ0b2tlbiI6bnVsbCwiaWF0IjoxNjMzOTI3NDYwLCJleHAiOjE2NjUwMzE0NjB9.OIAO7Y_nbexIxnhF5FW9IpAL7mOCCa6UiLNgq3ADrLKdAN6m-Qe5TM9XFRS3fLef7GiBF96NRz6583WS9jLM6w",
									"type": "string"
								}
							]
						},
						"method": "DELETE",
						"header": [
							{
								"warning": "This is a duplicate header and will be overridden by the Authorization header generated by Postman.",
								"key": "Authorization",
								"value": "Bearer eyJhbGciOiJFUzI1NiIsInR5cCI6IkpXVCJ9.eyJpZCI6NywidXNlck5hbWUiOiJhZG1pbiIsInBob25lIjoiMDgxIiwiZW1haWwiOiJtYWlsQG1haWwuY29tIiwiaW1hZ2VVcmwiOm51bGwsInRva2VuIjpudWxsLCJpYXQiOjE2MzM5MjYyOTQsImV4cCI6MTY2NTAzMDI5NH0.cdxKquzcs8LSvHFX4lvbG2pQ1yTJ4v9wyfX4Cn7uY2Jq7viDRPfcQBJfD255kFcYpa9E_hEq98u-1ZpK_6lX8g",
								"type": "text"
							}
						],
						"url": {
							"raw": "127.0.0.1:3003/product/1",
							"host": [
								"127",
								"0",
								"0",
								"1"
							],
							"port": "3003",
							"path": [
								"product",
								"1"
							]
						}
					},
					"response": []
				}
			]
		}
	]
}